…
Use the water\_segments function
--------------------------------

``` r
s_df <- wtrprof_df %>%  
  group_by(variable, group) %>% ## group by variable and group
  do(water_segments(thres=0.1,z0=2.5,zmax=150,z=.$depth,sigma=.$value)) ##do a water_layer calc
s_df
```

    ## Source: local data frame [40 x 4]
    ## Groups: variable, group [4]
    ## 
    ##    variable       group       smz        sms
    ##       <chr>       <chr>     <dbl>      <dbl>
    ## 1  salinity earlyspring  2.547000 0.05080000
    ## 2  salinity earlyspring  2.634726 0.05041180
    ## 3  salinity earlyspring  7.722812 0.05025533
    ## 4  salinity earlyspring  9.769743 0.05015157
    ## 5  salinity earlyspring 11.699707 0.05024573
    ## 6  salinity earlyspring 13.922089 0.05005259
    ## 7  salinity earlyspring 15.676602 0.05006517
    ## 8  salinity earlyspring 17.431114 0.05016102
    ## 9  salinity earlyspring 23.279489 0.04973940
    ## 10 salinity earlyspring 24.858551 0.04974008
    ## # ... with 30 more rows
…
